0
2.68324937978399
-0.986665277327774
-23.6628540310934
-8.20173534219458
2.15243726360096
14.1382967631386
2.24212501047774
1.72895150896301
13.9779407219852
18.4105792578461
15.0021440273555
11.0463291734989
-3.01652697230629
-11.7515061990841
-7.49951239470206
5.3377401791958
6.05605875380891
1.07987691240011
3.9359308592704
7.17983814136029
16.7092770198349
11.5216104424184
4.17485928335253
-2.26687110628599
-11.6802481609202
5.05042638229746
11.5516720638005
2.78823673303054
2.80247384243853
10.8877073869976
15.5675623311703
17.3395958179127
9.79661330781544
-2.38565359467036
-10.9767488843907
-3.69149519493067
-1.58102173502845
-14.0235856560288
-15.0203163148137
-13.9481406256114
-3.28699760815866
-4.52777474888083
-8.09971166979146
-20.2102882279955
-15.8560288614444
-4.02092229716009
-3.54033084732065
-9.88578773062032
-15.1982066310357
-11.9796209518255
-17.0930841749807
-3.03905208815016
-0.83811757061782
-14.1567476015727
-12.48773351578
-12.4933968423817
-0.969787868101771
-4.12235727096098
-11.9870265870575
-13.1840585139932
-15.6261506538152
-10.7815798456248
-5.40915996671196
-7.88061307671387
-15.1085267671836
-16.6295801656767
-7.16459759742079
-1.90615204799416
-8.00596310931804
-13.552339454477
-16.7310365213789
-9.80304241774913
2.16045747013
14.0261863380251
8.90015474145624
0.320344239192324
2.25005309828847
18.8264899426954
14.526857505225
4.16614347903934
0.126196013228482
1.22200605810043
21.0017971577128
19.3183601770246
11.8851880330176
4.99249463795457
2.29541045859609
13.0392938822282
17.9428984981163
11.0703197269582
5.54077489487285
4.52579074992226
7.12542433180978
15.1171858668566
24.4754137336359
12.3078252799048
5.93595341454163
4.26717797895696
15.5989007266267
